<svg xmlns="http://www.w3.org/2000/svg" width="123.851" height="66.5" viewBox="0 0 123.851 66.5">
  <path id="hands" d="M64.078,54.006h0A2.419,2.419,0,0,0,66.5,51.588l0-7.089c0-9.594-5.1-13.6-7.891-15.066V19.324a2.421,2.421,0,0,0,1.824-2.345V2.419A2.419,2.419,0,0,0,58.014,0H34.079A2.419,2.419,0,0,0,31.66,2.419v14.56a2.419,2.419,0,0,0,2.008,2.384v9.85l-5.155,1.538A13.2,13.2,0,0,0,22.8,33.566a2.373,2.373,0,0,0-.53.156,7.024,7.024,0,0,0-1.816,1.117A6.916,6.916,0,0,0,10.1,36.4a6.931,6.931,0,0,0-3.365-.76A7.015,7.015,0,0,0,.009,42.293c0,.076,0,.076-.009,37.058,0,12.921,9.254,15.7,9.648,15.81a2.419,2.419,0,1,0,1.322-4.654c-.061-.017-6.132-1.85-6.132-11.157,0-.358,0-35.085.006-36.857A2.149,2.149,0,0,1,6.87,40.473,2.092,2.092,0,0,1,9.015,42.4c0,.026,0,.052.008.077V63.386a2.419,2.419,0,0,0,4.838,0l.016-23.506a2.091,2.091,0,0,1,4.157-.026V69.22a6.722,6.722,0,0,0,7.5,6.664v6.391a2.347,2.347,0,0,0,.014.258,6.976,6.976,0,0,0,7.108,6.179,6.827,6.827,0,0,0,3.216-.912,7.007,7.007,0,0,0,.589.7L29.72,90.518a2.419,2.419,0,0,0-1.727,2.318v11.618H8.486a2.419,2.419,0,0,0-2.419,2.419v14.56a2.419,2.419,0,0,0,2.419,2.419H32.421a2.419,2.419,0,0,0,2.419-2.419v-14.56a2.419,2.419,0,0,0-2.009-2.384v-9.85L37.986,93.1a13.223,13.223,0,0,0,4.863-2.14,2.4,2.4,0,0,0,.551-.541,6.985,6.985,0,0,0,2.639-1.413A6.916,6.916,0,0,0,56.4,87.454a6.933,6.933,0,0,0,3.365.76A7.011,7.011,0,0,0,66.49,81.57c0-.077,0-.077.006-8.114a2.419,2.419,0,0,0-4.838,0c0,4.258,0,7.4,0,7.9a2.15,2.15,0,0,1-2.026,2.022,2.1,2.1,0,0,1-2.146-1.928c0-.026-.007-20.986-.007-20.986a2.419,2.419,0,1,0-4.838,0L52.622,83.97A2.092,2.092,0,0,1,48.465,84V60.45a2.419,2.419,0,1,0-4.838,0V83.964a2.125,2.125,0,0,1-4.22.014V60.465a2.419,2.419,0,0,0-4.838,0V81.859a2.155,2.155,0,0,1-2.047,2.016,2.107,2.107,0,0,1-2.147-1.755v-29.5a2.419,2.419,0,0,0-4.838,0V70.91a1.87,1.87,0,0,1-2.666-1.689V43.748a8.5,8.5,0,0,1,6.733-8.283c.066-.014.132-.031.2-.05l6.975-2.081a2.42,2.42,0,0,0,1.727-2.319V19.4H53.771V31.016a2.353,2.353,0,0,0,1.746,2.324c.411.132,6.145,2.147,6.145,11.159l0,7.089A2.419,2.419,0,0,0,64.078,54.006ZM30,119.013H10.9v-9.722H30ZM55.595,14.56H36.5V4.838h19.1Zm0,0" transform="translate(123.851) rotate(90)" fill="#fff"/>
</svg>
